{
  "version": 1.2,
  "tags": [
    {
      "name": "cma-button",
      "path": "./src/components/cma-button/cma-button.tsx",
      "description": "",
      "attributes": [
        {
          "name": "class",
          "type": "string",
          "description": "",
          "required": false
        },
        {
          "name": "disabled",
          "type": "boolean",
          "description": "",
          "required": false
        }
      ],
      "events": [],
      "methods": [],
      "slots": [],
      "cssProperties": [],
      "cssParts": []
    },
    {
      "name": "cma-title",
      "path": "./src/components/cma-title/cma-title.tsx",
      "description": "",
      "attributes": [],
      "events": [],
      "methods": [],
      "slots": [],
      "cssProperties": [],
      "cssParts": []
    },
    {
      "name": "my-component",
      "path": "./src/components/my-component/my-component.tsx",
      "description": "",
      "attributes": [
        {
          "name": "first",
          "type": "string",
          "description": "The first name",
          "required": false
        },
        {
          "name": "last",
          "type": "string",
          "description": "The last name",
          "required": false
        },
        {
          "name": "middle",
          "type": "string",
          "description": "The middle name",
          "required": false
        }
      ],
      "events": [],
      "methods": [],
      "slots": [],
      "cssProperties": [],
      "cssParts": []
    }
  ]
}